<?xml version="1.0" standalone="no"?>
<!DOCTYPE svg PUBLIC "-//W3C//DTD SVG 1.1//EN" "http://www.w3.org/Graphics/SVG/1.1/DTD/svg11.dtd" >
<svg xmlns="http://www.w3.org/2000/svg">
<metadata>Generated by IcoMoon</metadata>
<defs>
<font id="icomoon" horiz-adv-x="1024">
<font-face units-per-em="1024" ascent="960" descent="-64" />
<missing-glyph horiz-adv-x="1024" />
<glyph unicode="&#x20;" horiz-adv-x="512" d="" />
<glyph unicode="&#xe900;" glyph-name="close-panel" d="M744.413 826.535l-226.661-226.661-226.661 226.661c-42.571 42.571-109.303 42.571-151.874 0s-42.571-109.303 0-151.874l226.661-226.661-223.209-223.209c-42.571-42.571-42.571-109.303 0-151.874s109.303-42.571 151.874 0l226.661 226.661 226.661-227.811c42.571-42.571 109.303-42.571 151.874 0s42.571 109.303 0 151.874l-226.661 227.811 226.661 226.661c42.571 42.571 42.571 109.303 0 151.874-46.022 39.119-115.056 39.119-155.326-3.452z" />
<glyph unicode="&#xe901;" glyph-name="comment-fill" horiz-adv-x="984" d="M829.314 952.415h-672.553c-88.494 0-154.232-58.153-154.232-149.175v-470.281c0-88.494 68.267-154.232 154.232-154.232h166.874l113.778-154.232 58.153-83.437 45.511 58.153 118.835 166.874h166.874c88.494 0 154.232 68.267 154.232 154.232v475.338c7.585 88.494-63.21 156.76-151.704 156.76zM632.099 368.356h-419.714v50.568h419.714v-50.568zM786.331 537.758h-573.946v55.625h573.946v-55.625zM786.331 694.519h-573.946v55.625h573.946v-55.625z" />
<glyph unicode="&#xe902;" glyph-name="upvote" horiz-adv-x="1344" d="M79.511-56.772h1180.612c65.054 0 98.786 106.014 53.007 166.249l-590.306 811.972c-28.913 38.551-77.101 38.551-106.014 0l-590.306-811.972c-45.779-60.235-12.047-166.249 53.007-166.249v0z" />
</font></defs></svg>